"","anio","nomddr","cafe_cereza","cana","cana_fruta","chayote","gladiola","limon","mandarina","mango","maiz_grano","naranja","palma_de_aceite","palma_camedor","papa","papaya","pastos","pina","platano","sandia","sorgo_grano","tangelo","tangerina","tomate_rojo","toronja","semilla_de_cana"
"1",2011,"Choapas",0,0,0,0,0,323.3,0,0,119864.85,20902.3,1256.5,0,0,0,0,0,0,0,0,0,0,0,0,0
"2",2012,"Choapas",0,0,0,0,0,319.05,0,0,126838.8,16026.4,1080,0,0,0,0,0,0,0,0,0,0,0,0,0
"3",2013,"Choapas",0,0,0,0,0,383.05,0,0,141809,11038,1127.85,0,0,0,0,0,0,0,0,0,0,0,0,0
"4",2014,"Choapas",0,0,0,0,0,270.1,0,50,128839,6896.23,1903.2,0,0,218,0,0,0,0,0,0,0,0,0,0
"5",2015,"Choapas",0,0,0,0,0,237.35,0,0,170335.2,12804.5,1436.5,0,0,0,0,0,0,0,0,0,0,0,0,0
"6",2016,"Choapas",0,0,0,0,0,244.37,0,0,152220.35,11109.78,1437.78,0,0,0,0,0,0,0,0,0,0,0,0,0
"7",2017,"Choapas",0,0,0,0,0,395.93,0,0,146851.85,11584.8,1550.77,0,0,0,0,0,0,0,0,0,0,0,0,0
"8",2018,"Choapas",0,0,0,0,0,539.6,0,0,150130.51,14917.82,1598.09,0,0,0,0,0,0,0,0,0,0,0,0,0
"9",2019,"Choapas",0,0,0,0,0,1308.64,0,0,143627.45,13406.78,2241,0,0,0,0,0,0,0,0,0,0,0,0,0
"10",2020,"Choapas",0,0,0,0,0,952.27,0,0,147823.1,13115.81,0,0,0,0,0,0,0,0,0,0,0,0,0,0
"11",2021,"Choapas",0,0,0,0,0,960.46,0,0,160885.84,13175.15,0,0,0,0,0,0,0,0,0,0,0,0,0,0
"12",2011,"Ciudad Alemán",0,3885402.28,0,0,0,9651.75,0,14109.7,44234.2,0,0,0,0,20880,0,45600,19963.7,2782.5,3440,0,0,0,0,0
"13",2012,"Ciudad Alemán",0,4329018.21,0,0,0,10446.6,0,0,48800.88,0,0,0,0,17787,0,41695,19208.44,2362,3135,0,0,0,0,0
"14",2013,"Ciudad Alemán",0,5704965.6,0,0,0,16198,0,12405.7,41312.85,0,0,0,0,13860,0,39000,15664.9,2470,2909.2,0,0,0,0,80012.3
"15",2014,"Ciudad Alemán",0,4704625.04,0,0,0,15818.35,0,8093.1,41265.05,0,0,0,0,12888,0,33154,15174,2493.5,4380.56,0,0,0,0,75088.1
"16",2015,"Ciudad Alemán",0,4580033.58,0,0,0,16319.5,0,8640.8,43090.89,0,0,0,0,14036,0,39300,14615,3050,3959,0,0,0,0,64557.82
"17",2016,"Ciudad Alemán",0,5123476.29,0,0,0,15986.25,0,8230.28,53698.83,0,0,0,0,13800,0,36250,14951.2,2432.75,3123.49,0,0,0,0,141338.56
"18",2017,"Ciudad Alemán",0,5400919.86,0,0,0,16077.6,0,1979.1,57536.95,0,0,0,0,11122.2,0,37325,13038,3150,4164.39,0,0,0,0,121686.54
"19",2018,"Ciudad Alemán",0,5358383.63,0,0,0,15900,0,4234.7,54454.05,0,0,0,0,13640,0,35400,13745.8,3598,5191.75,0,0,0,0,135495.4
"20",2019,"Ciudad Alemán",0,5810841.3,0,0,0,16032.5,0,4524.58,40122.94,0,0,0,0,13847,0,35258,13331,3486.3,4524.74,0,0,0,0,80457.12
"21",2020,"Ciudad Alemán",0,5558672.94,0,0,0,16496.25,0,2645.6,49221.11,0,0,0,0,14466.9,0,32848,13990.8,3036.35,4307.6,0,0,0,0,0
"22",2021,"Ciudad Alemán",0,5495984.6,0,0,0,16802,0,7644.45,50222.54,0,0,0,0,13944,0,33535.75,14557.8,2200.8,4911.91,0,0,0,0,0
"23",2011,"Coatepec",69041.3,427187.3,0,800,0,3989.5,0,6730,38614.29,130,0,0,82584.62,460,0,0,3075,0,0,0,0,19400,0,0
"24",2012,"Coatepec",56953.51,524570.13,63000,1200,0,4335.8,0,6996.2,60206.52,266.5,0,0,146420.89,850,0,0,5869,0,0,0,0,11875,0,54517.78
"25",2013,"Coatepec",65474.97,543997.37,22375,0,0,4894.5,0,7246,76995.64,220.8,0,0,128013.9,845,2972,0,7052,0,0,0,0,15182.5,0,35380
"26",2014,"Coatepec",71107.58,531066.9,50120,1485,0,5244,0,8571.1,76613.71,259,0,0,149648.25,480,3415,0,9166.5,0,0,0,0,13159.92,0,35282
"27",2015,"Coatepec",47575.8,524798.62,30970,0,0,5452,0,5155.5,68358.04,80,0,0,108323.4,636,4526.75,0,9449.53,0,0,0,0,13265,0,37364
"28",2016,"Coatepec",17626.57,587991,22820,1200,0,6562.5,0,4897.58,82129.05,103,0,0,119796.65,632.8,4788,0,6859.5,0,0,0,0,15650,0,12865
"29",2017,"Coatepec",36018.68,603200.5,31296,840,0,9398.56,0,4065.9,51399.18,145.5,0,0,120119.43,1757.5,5413.5,0,6306.65,0,0,0,0,11935,0,11480
"30",2018,"Coatepec",35331.78,621032.38,21385.6,1210,0,13389.74,0,5342.8,75138.14,179,0,0,130123.03,1632,5664.96,0,8658.6,0,0,0,0,14392,0,13440
"31",2019,"Coatepec",33756.02,616149.37,16696,1441,0,14965.67,0,3974.27,93478.45,177.03,0,0,130186.49,2375,3645.2,0,9169,0,0,0,0,11314,0,0
"32",2020,"Coatepec",48582.18,463649.97,16700.17,0,0,15714.98,0,3844,96907.21,279.92,0,0,204687.1,2878,0,0,9152.15,0,0,0,0,10966.25,0,0
"33",2021,"Coatepec",47894.83,709498.72,8752.88,0,0,15130.2,0,4345.3,80235.23,252.7,0,0,135806.24,3168,0,0,6244.02,0,0,0,0,12224.3,0,0
"34",2011,"Fortín",178586.98,6735725,0,112944.5,91485,43403,0,17565.4,104321.17,1725.25,0,0,14897.5,734,0,0,1881.8,0,0,0,0,410.25,0,0
"35",2012,"Fortín",210898.3,6362195.72,0,103136.72,92555,45593.88,0,17505.9,97630.86,1765,0,0,20187.05,755,0,0,1838.07,0,0,0,0,416.8,0,124098.8
"36",2013,"Fortín",205922.53,6605751.5,0,106063,89610,48484,0,17042.6,101084.17,1977.45,0,0,20572,450,0,0,1996.2,0,0,0,0,440.6,0,127197.5
"37",2014,"Fortín",184804.55,6386128.5,0,107837,91875,41134.7,0,14415.18,105177.89,1490,0,0,21754,455,0,0,1860.4,0,0,0,0,462.5,0,133570
"38",2015,"Fortín",146769.1,6493171.5,0,106587.2,90835.5,48190.5,0,14087.5,93826.04,1755,0,0,20826.85,500,0,0,1778.4,0,0,0,0,407,0,126440
"39",2016,"Fortín",112540.7,6471904.5,0,130469.53,84770,52094.1,0,9145.75,85144.66,2047.2,0,0,21307.33,232.5,0,0,2176,0,0,0,0,499.5,0,131951.5
"40",2017,"Fortín",98198.08,6521089.9,0,136379.1,82650,56886.79,0,11736.8,99970.24,2061.5,0,0,20940.96,285,0,0,2181.4,0,0,0,0,516,0,138242
"41",2018,"Fortín",107616.33,6429738.55,0,136920,89775,60649.9,0,9371.39,101453.09,1737,0,0,23441.9,342,0,0,2539.8,0,0,0,0,651.8,0,140850
"42",2019,"Fortín",115644.1,6575159.09,0,133061.94,86366,60656.82,0,7708,89808.23,1390,0,0,20909.28,286,0,0,870,0,0,0,0,629.68,0,0
"43",2020,"Fortín",116257.94,5536616.44,0,0,92590,54469,0,6842.6,93041.14,1234,0,0,21378.78,181.5,0,0,695.5,0,0,0,0,732.05,0,0
"44",2021,"Fortín",110625.33,5724951.05,0,0,0,57467.73,0,6857.45,92178.3,1314.12,0,0,21937.96,165,0,0,783,0,0,0,0,1136.02,0,0
"45",2011,"Huayacocotla",10390.6,0,0,0,0,0,0,0,26002.25,23678,0,0,90,0,0,0,0,200,0,0,0,0,0,0
"46",2012,"Huayacocotla",7340.8,0,0,0,0,0,0,0,45678,16862.1,0,0,104,0,0,0,0,250,0,0,0,0,0,0
"47",2013,"Huayacocotla",6149.65,0,0,0,0,0,0,0,41960.8,24035,0,0,144,0,0,0,0,0,0,0,0,0,0,0
"48",2014,"Huayacocotla",5982.3,0,0,0,0,0,0,0,49003.5,22897.5,0,0,136,0,0,0,0,320,0,0,0,0,0,0
"49",2015,"Huayacocotla",5890.15,0,0,0,0,0,0,0,52780.01,26891.5,0,0,138,0,0,0,0,300,0,0,0,0,0,0
"50",2016,"Huayacocotla",6435.47,0,0,0,0,0,0,0,37877.97,27955.86,0,0,150.4,0,0,0,0,387.45,0,0,0,0,0,0
"51",2017,"Huayacocotla",5844.55,0,0,0,0,0,0,0,51522.3,38450,0,0,158.1,0,0,0,0,250,0,0,0,0,0,0
"52",2018,"Huayacocotla",7178.8,0,0,0,0,0,0,0,42270.14,38460.13,0,0,162,0,0,0,0,333.45,0,0,0,0,0,0
"53",2019,"Huayacocotla",7035.21,0,0,0,0,0,0,0,35195.93,39269.2,0,0,143.84,0,0,0,0,319,0,0,0,0,0,0
"54",2020,"Huayacocotla",7065.25,0,0,0,0,0,0,0,46765.26,39045,0,0,165,0,0,0,0,336,0,0,0,0,0,0
"55",2021,"Huayacocotla",7538.55,0,3125.42,0,0,0,0,0,35032.72,40950,0,0,136,0,0,0,0,240,0,0,0,0,0,0
"56",2011,"Jáltipan",5057.85,476910,0,0,0,614.5,0,839,226976,14149,40455.35,0,0,1810,0,0,0,1351.5,6260,0,0,0,0,0
"57",2012,"Jáltipan",4702.7,753350,0,0,0,1309,0,943.93,211898.52,24837,46936.68,0,0,3686.7,0,0,0,1567.5,14355,0,0,0,0,14422.46
"58",2013,"Jáltipan",9620.8,849993.2,0,0,0,1246.05,0,1706.25,187542.5,20736.5,60696.35,0,0,2592,0,0,0,1355,8135,0,0,0,0,0
"59",2014,"Jáltipan",9939.6,785200,0,0,0,1198.4,0,1524.6,255257.2,24301.9,59381.15,0,0,2400,0,0,0,1052,11931,0,0,0,0,0
"60",2015,"Jáltipan",8598,837000,0,0,0,1143.3,0,1591.1,226630.7,22988.3,62092.3,0,0,2397,0,0,0,1408,6050,0,0,0,0,0
"61",2016,"Jáltipan",8152.3,811222,0,0,22422,1223.45,0,1718,249486.73,22871.95,63422.99,0,0,2289.5,0,0,0,1037,7230,0,0,0,0,21828
"62",2017,"Jáltipan",7471.75,804196,0,0,0,1724.43,0,1717.1,256964.9,23365.92,65213.08,0,0,2825.6,0,0,0,9225.7,8831.68,0,0,0,0,22275
"63",2018,"Jáltipan",7405.68,834185.45,0,0,0,1809.54,0,1674.92,232563.58,25572.85,66326.64,0,0,2840.85,0,0,0,9090.74,17873.69,0,0,0,0,23199
"64",2019,"Jáltipan",7804.87,833613.6,0,0,0,1808.33,0,1737.03,225772.99,20452.44,67253.72,0,0,2651.65,0,76094.58,0,9127.23,19589.66,0,0,0,0,0
"65",2020,"Jáltipan",8294.6,917458.22,0,0,0,1820.61,0,1693.27,217886.24,20757.94,0,0,0,3275.97,0,77471.82,0,9335.82,19225.87,0,0,0,0,0
"66",2021,"Jáltipan",8135.17,724602.45,0,0,0,2086.99,0,1753.43,256811.3,21519.35,0,0,0,10596.93,0,99874,0,9874.87,17526.44,0,0,0,0,0
"67",2011,"La Antigua",3809.38,1913835.75,0,34200,0,357,0,17651,10348.85,0,0,0,0,20135,0,0,0,2705,0,0,0,24940.25,25600,0
"68",2012,"La Antigua",3939.6,2249470.94,0,27300,0,494,0,19998.5,69573.65,0,0,0,0,29800,0,0,0,2726.5,0,0,0,31993.24,25520,0
"69",2013,"La Antigua",2986.79,2477078.5,0,27740,0,740,0,15568.8,83260.23,0,0,0,0,15663,0,0,0,3836,0,0,0,26831.9,25600,0
"70",2014,"La Antigua",2337.53,2182456.25,0,25200,0,674,0,24283.7,85334.35,0,0,0,0,5135,0,0,0,2920.5,0,0,0,29233,20000,0
"71",2015,"La Antigua",2791.92,2192510.75,0,26523,0,706.9,0,31274.3,16154.23,0,0,0,0,8204,0,0,0,304,0,0,0,18167,25600,0
"72",2016,"La Antigua",2121.11,1838112.68,0,24850,0,780.5,0,30908.3,71010.3,0,0,0,0,9623,0,0,0,4098,0,0,0,12101,28000,32062
"73",2017,"La Antigua",2640.61,1987473.7,0,26250,0,932.5,0,19534.9,60182.7,0,0,0,0,8452,0,0,0,4764,0,0,0,10357.25,28800,31995
"74",2018,"La Antigua",2510.85,2166885.75,0,25221.5,0,1030.5,0,19326.16,14827.5,0,0,0,0,15250,0,0,0,2128,0,0,0,10923.5,28400,32058
"75",2019,"La Antigua",2401.53,2023914.46,0,31955,0,8733.6,0,29104.17,17286.07,0,0,0,0,12127,0,0,0,2543,0,0,0,12439.09,36000,0
"76",2020,"La Antigua",2532.49,1921771.22,0,0,0,5399.76,0,28535.07,59150.47,0,0,0,0,12776,0,0,0,1281.75,0,0,0,10943.89,27200,0
"77",2021,"La Antigua",3007.42,2623976.03,0,0,0,5804.2,0,28555.52,54358.23,0,0,0,0,12398.4,0,0,0,1670.2,0,0,0,13293.26,25725,0
"78",2011,"Martínez de la Torre",66624.89,55320.58,0,0,0,440234.65,8035,0,98617.85,717648.33,0,1065155,4000,6699.5,0,1536,227878.11,24380,0,88277.2,43386.52,161,182270,0
"79",2012,"Martínez de la Torre",83379.8,113570.57,105486.52,0,0,470522.25,7413,0,105646.05,634521.45,0,1160630,1700,3640,0,1590,238723.36,31373.1,0,83937.9,40243.25,85,197513.2,2216.67
"80",2013,"Martínez de la Torre",73101.7,141467.75,0,0,0,504097.42,7924,0,121916.75,629230.5,0,1293050,1548,6855,0,1410,233784.5,17615,0,94595,38553,59.5,183053,2241
"81",2014,"Martínez de la Torre",77046.46,137451.39,0,0,0,522692.5,7332.5,0,129031.7,768501.5,0,1201200,2700,4071,0,952,243424.08,22501,0,97222,42095.5,468,192164.4,1344
"82",2015,"Martínez de la Torre",62332.34,170543.77,0,0,0,532726.8,7765,0,134011.4,762918.4,0,1306830.75,1610,6095,0,735,270403.82,25820,0,73557,38748,54,174934.01,0
"83",2016,"Martínez de la Torre",43191,135232.7,0,0,0,575395.26,7112.5,0,124491.53,764195.78,0,1368960,1400,6368,0,240,278887.5,18327.5,0,101487.7,43085.7,77,181486,0
"84",2017,"Martínez de la Torre",42239.95,103768.64,0,0,0,503001.2,7354.9,0,113949.71,666883,0,1343936.75,1785,6495.5,0,1250,161435.08,26969.8,0,116838.64,46238.5,47.5,157936.5,0
"85",2018,"Martínez de la Torre",47559.81,104671.25,0,0,0,478449.21,7208.92,0,138133.38,775337.37,0,1326651.64,2160,5637,0,1405,232234.63,25300.28,0,122010.4,46043.5,54,173577.7,0
"86",2019,"Martínez de la Torre",49557.5,100036.16,0,0,0,523515.5,7402.66,0,127165.12,767971,0,1266337.5,1800,5139.55,0,1400,286721.48,22650.52,0,119861.82,45228.65,56,187792.32,0
"87",2020,"Martínez de la Torre",49296.68,57672.69,0,0,0,617687.37,6988.25,0,126629.76,756811.42,0,0,1640.1,4648.7,0,1393,277518.16,21886.49,0,0,0,66,186539,0
"88",2021,"Martínez de la Torre",50421.36,109346.62,0,0,0,597425.78,7155.17,0,129582.68,766657.76,0,0,1848,4287,0,2442.97,252035.03,21530.48,0,0,0,95.25,191188.48,0
"89",2011,"Pánuco",0,1974262.5,0,0,0,1640,886,288,57449.73,257671,0,0,0,1805,0,1540,1688,15538,12642,0,0,710,825,0
"90",2012,"Pánuco",0,1578468.84,0,0,0,1617,585,264,100003.61,255857,0,0,0,5800,0,1700,1598.2,23209,27262.5,0,0,7976,725,107802.62
"91",2013,"Pánuco",0,2532511.28,0,0,0,1462.5,635.5,232,66137.5,248881.5,0,0,0,1940,0,722.5,1702.8,21697,10787,0,0,1407,1330,0
"92",2014,"Pánuco",0,2287693.5,0,0,0,1842,968,119.4,85281.27,280789,0,0,0,2344,0,2125,1048,8181,16855,0,0,1445,1648,0
"93",2015,"Pánuco",0,2407492,0,0,0,1608.5,934,92,89798.55,256653,0,0,0,1849,0,1700,120,9764.5,21010.3,0,0,1486,1798,0
"94",2016,"Pánuco",0,2465408,0,0,0,1678,955.8,0,94048.61,262725.1,0,0,0,2355.2,0,1785,0,14317.1,11894.8,0,0,1142.08,1433,51496
"95",2017,"Pánuco",0,2919486.5,0,0,0,3916.8,994.6,0,95285.72,311368.44,0,0,0,2247.2,0,2380,0,22184.2,15810.9,0,0,1561.9,1415,51345
"96",2018,"Pánuco",0,2931414.5,0,0,0,4659,1236,0,83249.9,287838,0,0,0,1950,0,2125,0,17637,20442.25,0,0,1160.4,1293,52451
"97",2019,"Pánuco",0,2948054,0,0,0,6204,1391,0,37374.46,282117.64,0,0,0,2430,0,4126.65,0,18690,16641.15,0,0,822.58,1215.76,0
"98",2020,"Pánuco",0,2830976,0,0,0,4282.46,1390.3,0,84639.82,247881.04,0,0,0,2015.74,0,4290,0,13075.06,22904.41,0,0,529.72,896,0
"99",2021,"Pánuco",0,2789589.51,0,0,0,37128.96,1218,0,78393.98,202496.71,0,0,0,1725,0,8250,0,20693.25,21580.33,0,0,786.08,950,0
"100",2011,"San Andrés Tuxtla",1926,1354832,0,0,0,0,0,13012,240447,9248,0,0,0,14700,0,443000,3132,31138,0,0,0,6510,0,0
"101",2012,"San Andrés Tuxtla",2194.5,1407297.91,0,0,0,0,0,2264,308704.88,7076,0,0,0,5130,0,437854.38,2584,27033.6,0,0,0,5795,0,27471.46
"102",2013,"San Andrés Tuxtla",2031,1374240,0,0,0,600,0,8800,240406.5,7434,0,0,0,3460,0,444762,2076,22114,200,0,0,1758,0,0
"103",2014,"San Andrés Tuxtla",2437.2,1169580.25,0,0,0,610,0,8886.4,227461,8064,0,0,0,2889,0,470541,2113,26194,47809,0,0,2129.7,0,0
"104",2015,"San Andrés Tuxtla",2065,1297058.3,0,0,0,620,0,10529,182950.15,4918,0,0,0,2580,0,449373.4,1914,23168.7,18743.4,0,0,2694,0,0
"105",2016,"San Andrés Tuxtla",2240,1378968.68,0,0,0,625,0,8379.6,182936.87,6157,0,0,0,2411.5,0,467636.8,1317.9,23732.2,974.9,0,0,2692.8,0,27740
"106",2017,"San Andrés Tuxtla",1982.4,1482216,0,0,0,590,0,2376.8,181943.99,4204,0,0,0,2095,0,496793.5,1939,20204.8,745.9,0,0,2115,0,28194
"107",2018,"San Andrés Tuxtla",2121.76,1485678.3,0,0,0,695,0,5839.6,169182.45,7136,0,0,0,2488,0,530060.5,2064.5,14448.4,2519.8,0,0,2988,0,28200
"108",2019,"San Andrés Tuxtla",1400,1573211.81,0,0,0,770,0,5978.3,154341.69,6695.5,0,0,0,2433.99,0,504628.68,2918.4,19099.96,29.85,0,0,2016,0,0
"109",2020,"San Andrés Tuxtla",2520,1504908.31,0,0,0,2438.05,0,5946.01,209496.47,6588.91,0,0,0,2399.07,0,627787.16,2361.47,19322.03,382.27,0,0,1976,0,0
"110",2021,"San Andrés Tuxtla",2191,1525737.8,0,0,0,2384.39,0,5900.31,205919.76,6505.39,0,0,0,2362.03,0,627154.72,2881.65,19118.83,382.16,0,0,1898,0,0
"111",2011,"Tuxpan",46,0,0,0,0,5483.45,115566.2,0,44738.7,935927.9,0,0,0,0,0,0,7847,0,0,0,108839.96,0,11976.2,0
"112",2012,"Tuxpan",46,0,0,0,0,7191.48,127094.24,0,49703.03,830354.49,0,0,0,0,0,0,6866.75,0,0,0,120886.9,0,23575,0
"113",2013,"Tuxpan",46,0,0,0,0,6213.53,109777.8,0,50015.14,1197960.2,0,0,0,96,0,0,10611.98,0,0,0,118949.9,0,26488.5,0
"114",2014,"Tuxpan",42,0,0,0,0,6637.81,146294.7,0,61074.48,1238549.47,0,0,0,75,0,0,12573.16,0,0,0,136804.71,0,30931,0
"115",2015,"Tuxpan",32.4,0,0,0,0,7132.8,138645.7,0,61187.52,1245186,0,0,0,226.8,0,0,13526.02,0,0,0,140207,0,30520.25,0
"116",2016,"Tuxpan",34,0,0,0,0,7266,131584.96,0,61478.9,1268831.2,0,0,0,401.6,0,0,13518.8,0,0,0,138394,0,30980.29,0
"117",2017,"Tuxpan",36.55,0,0,0,0,7474.75,125644.69,0,59698.89,1270893.7,0,0,0,0,0,0,13580.25,0,0,0,142261.25,0,35283.78,0
"118",2018,"Tuxpan",43.52,0,0,0,0,7596.45,141386.27,0,75684.42,1354706.31,0,0,0,0,0,0,13848.29,0,0,0,143036.97,0,43094.93,0
"119",2019,"Tuxpan",33.83,0,0,0,0,7754.44,127026.45,0,63793.98,1353185.2,0,0,0,0,0,0,13844.04,0,0,0,133905.09,0,44468,0
"120",2020,"Tuxpan",34.17,0,0,0,0,7659.76,139509.88,0,72170.31,1273589.07,0,0,0,0,0,0,13678.1,0,0,0,0,0,44719.48,0
"121",2021,"Tuxpan",35.36,0,0,0,0,7882.93,92760.2,0,50418.68,1216154.61,0,0,0,0,0,0,13820,0,0,0,0,0,20623.45,0
"122",2011,"Veracruz",0,548086.15,0,0,0,14217.84,0,43728.15,28231.41,1872,0,0,0,47833,334525,54054,5334,6221,20,0,0,2250,15104.5,0
"123",2012,"Veracruz",0,793943.31,0,0,0,16301.34,0,44122.3,50632.75,1658.43,0,0,0,54227.5,702642.4,55910,5444.55,1430.8,123.88,0,0,0,14215.4,20996.98
"124",2013,"Veracruz",0,1192908.29,0,0,0,20714.33,0,45766.5,39727.5,2047.25,0,0,0,57183.2,429615.05,56762.75,4627.2,4957.02,469.95,0,0,4363.75,15498.5,0
"125",2014,"Veracruz",0,958955.5,0,0,0,26940.2,0,34888.2,20516.21,1921,0,0,0,50847.5,441075,60762,5731,5229.92,597.5,0,0,1489,5610,0
"126",2015,"Veracruz",0,1212800,0,0,0,44896.5,0,47174.75,72966.6,2232.1,0,0,0,65964.5,451428.1,61287.56,6919,24037,607.34,0,0,767,16075,0
"127",2016,"Veracruz",0,1175275,0,0,0,55099.5,0,47763.53,79259.7,2504.5,0,0,0,66635.39,470965,63133,7853,26841.7,693.9,0,0,1648,17098,16610
"128",2017,"Veracruz",0,1293842.6,0,0,0,57883.58,0,51247.6,93610,2702.7,0,0,0,71615.16,492121.4,67180.5,8402.72,27699.7,849,0,0,1796,18973.5,16200
"129",2018,"Veracruz",0,1300651.95,0,0,0,59879.86,0,49951,97484.96,2602,0,0,0,70393.48,560959.28,65236.27,8693,24647.7,971.53,0,0,1917.5,19916,16616
"130",2019,"Veracruz",0,1307909.18,0,0,0,61126.87,0,46708.21,85171.22,2291.5,0,0,0,70943.48,563369.2,65276.4,7016.5,25729.1,869.4,0,0,1899.29,14903.75,0
"131",2020,"Veracruz",0,1661591.3,0,0,0,61634.3,0,46983.55,86871.43,2309.2,0,0,0,72068.1,0,65501.9,7336.39,27428.3,899.23,0,0,1961.7,14948.52,0
"132",2021,"Veracruz",0,1575425.64,0,0,0,61655.47,0,46907.39,91457.91,2497.75,0,0,0,72041.09,0,88153.21,7335.45,27840.93,948.74,0,0,1927.96,16814.76,0
